^E:\MAC\AV\KASPERSKY.AV.2008.SRCS.ELCRABE\SOURCES\ANTIPHISHING\ANTIPHISHING\LSTCACHE.CPP
/c /I..\..\PPP\INCLUDE /I..\..\PRAGUE\INCLUDE /I..\..\COMMONFILES /ZI /nologo /W3 /WX- /diagnostics:column /Od /Oy- /D WIN32 /D _DEBUG /D _WINDOWS /D _PRAGUE_TRACE_ /D _VC80_UPGRADE=0x0600 /D _WINDLL /Gm /EHsc /RTC1 /MDd /GS /Gy- /fp:precise /Zc:wchar_t /Zc:forScope /Zc:inline /Fo".\..\..\TEMP\DEBUG\ANTIPHISHING\\" /Fd".\..\..\TEMP\DEBUG\ANTIPHISHING\VC142.PDB" /Gd /TP /analyze- /FC E:\MAC\AV\KASPERSKY.AV.2008.SRCS.ELCRABE\SOURCES\ANTIPHISHING\ANTIPHISHING\LSTCACHE.CPP
^E:\MAC\AV\KASPERSKY.AV.2008.SRCS.ELCRABE\SOURCES\ANTIPHISHING\ANTIPHISHING\PATTERN.CPP
/c /I..\..\PPP\INCLUDE /I..\..\PRAGUE\INCLUDE /I..\..\COMMONFILES /ZI /nologo /W3 /WX- /diagnostics:column /Od /Oy- /D WIN32 /D _DEBUG /D _WINDOWS /D _PRAGUE_TRACE_ /D _VC80_UPGRADE=0x0600 /D _WINDLL /Gm /EHsc /RTC1 /MDd /GS /Gy- /fp:precise /Zc:wchar_t /Zc:forScope /Zc:inline /Fo".\..\..\TEMP\DEBUG\ANTIPHISHING\\" /Fd".\..\..\TEMP\DEBUG\ANTIPHISHING\VC142.PDB" /Gd /TP /analyze- /FC E:\MAC\AV\KASPERSKY.AV.2008.SRCS.ELCRABE\SOURCES\ANTIPHISHING\ANTIPHISHING\PATTERN.CPP
^E:\MAC\AV\KASPERSKY.AV.2008.SRCS.ELCRABE\SOURCES\ANTIPHISHING\ANTIPHISHING\PLUGIN_ANTIPHISHING.CPP
/c /I..\..\PPP\INCLUDE /I..\..\PRAGUE\INCLUDE /I..\..\COMMONFILES /ZI /nologo /W3 /WX- /diagnostics:column /Od /Oy- /D WIN32 /D _DEBUG /D _WINDOWS /D _PRAGUE_TRACE_ /D _VC80_UPGRADE=0x0600 /D _WINDLL /Gm /EHsc /RTC1 /MDd /GS /Gy- /fp:precise /Zc:wchar_t /Zc:forScope /Zc:inline /Fo".\..\..\TEMP\DEBUG\ANTIPHISHING\\" /Fd".\..\..\TEMP\DEBUG\ANTIPHISHING\VC142.PDB" /Gd /TP /analyze- /FC E:\MAC\AV\KASPERSKY.AV.2008.SRCS.ELCRABE\SOURCES\ANTIPHISHING\ANTIPHISHING\PLUGIN_ANTIPHISHING.CPP
^E:\MAC\AV\KASPERSKY.AV.2008.SRCS.ELCRABE\SOURCES\ANTIPHISHING\ANTIPHISHING\TASK.CPP
/c /I..\..\PPP\INCLUDE /I..\..\PRAGUE\INCLUDE /I..\..\COMMONFILES /ZI /nologo /W3 /WX- /diagnostics:column /Od /Oy- /D WIN32 /D _DEBUG /D _WINDOWS /D _PRAGUE_TRACE_ /D _VC80_UPGRADE=0x0600 /D _WINDLL /Gm /EHsc /RTC1 /MDd /GS /Gy- /fp:precise /Zc:wchar_t /Zc:forScope /Zc:inline /Fo".\..\..\TEMP\DEBUG\ANTIPHISHING\\" /Fd".\..\..\TEMP\DEBUG\ANTIPHISHING\VC142.PDB" /Gd /TP /analyze- /FC E:\MAC\AV\KASPERSKY.AV.2008.SRCS.ELCRABE\SOURCES\ANTIPHISHING\ANTIPHISHING\TASK.CPP
